{
  "comments": {
    "data": [
      {
        "created_time": "2014-11-14T19:37:16+0000",
        "from": {
          "name": "Anas Umar",
          "id": "560909734019772"
        },
        "message": "Goood nd fn",
        "id": "10153698778433306_10153698794923306"
      }
    ],
    "paging": {
      "cursors": {
        "before": "MjMx",
        "after": "MjMx"
      },
      "next": "https://graph.facebook.com/10153698778433306/comments?pretty=0&summary=true&limit=1&after=MjMx"
    },
    "summary": {
      "order": "ranked",
      "total_count": 231,
      "can_comment": true
    }
  },
  "id": "10153698778433306"
}